
job = job_td

tdfield_init_from = tdfield_init_from_expression

maxtime = 2*pi*10
maxntime = 100*10

nfield = 2

-- variable: dim ( The dimension of the model. The matrices H0 and V must at have this dimension or larger)
dim = 2

epsilon_functions = {"epsilon1", "epsilon2"}

function epsilon1(t)
  return 0.05*math.sin(1.55*t)
end

function epsilon2(t)
  return 0.05*math.sin(1.55*t-pi/2)
end

tdfield_representation = tdfield_realtime

initial_states = { 1.0, 0.0, 0.0, 0.0 }

propagator = propagator_taylor_expansion

picture = schrodinger_picture

